

[2021-02-17 02:49:53] Startup - updater built Oct 28 2020 23:34:22
[2021-02-17 02:49:54] Failed to load cached hosts file (File 'update_hosts_cached.vdf' not found), using defaults
[2021-02-17 02:49:54] Using the following download hosts for Public, Realm steamglobal
[2021-02-17 02:49:54] 1. http://client-download.steampowered.com, /client/, Realm 'steamglobal', weight was 100, source = 'baked in'
[2021-02-17 02:49:54] 2. http://media.steampowered.com, /client/, Realm 'steamglobal', weight was 1, source = 'baked in'
[2021-02-17 02:49:54] Verifying installation...
[2021-02-17 02:49:54] Unable to read and verify install manifest /home/carlos/.local/share/Steam/package/steam_client_ubuntu12.installed
[2021-02-17 02:49:54] Verification complete
[2021-02-17 02:49:54] Downloading Update...
[2021-02-17 02:49:54] Checking for available update...
[2021-02-17 02:49:54] Downloading manifest: client-download.steampowered.com/client/steam_client_ubuntu12
[2021-02-17 02:50:05] Download failed: http error 0 (client-download.steampowered.com/client/steam_client_ubuntu12)
[2021-02-17 02:50:05] Downloading manifest: media.steampowered.com/client/steam_client_ubuntu12
[2021-02-17 02:50:10] Package file tenfoot_misc_all.zip.1ca83d76835b4613170f5cead778b176b11f2b0c missing or incorrect size
[2021-02-17 02:50:10] Package file tenfoot_dicts_all.zip.33245b7d523f68418283e93b0572508fa127ee8f missing or incorrect size
[2021-02-17 02:50:10] Package file tenfoot_fonts_all.zip.vz.7673e4cd32b6752bc621d8bc1a7118a9af19b64a_12077027 missing or incorrect size
[2021-02-17 02:50:10] Package file tenfoot_ambientsounds_all.zip.89b80bcfdd11b2b99257ddbbdc374e2df54e2738 missing or incorrect size
[2021-02-17 02:50:10] Package file tenfoot_sounds_all.zip.vz.ffef2b2fc386819a842ea79484b966a937c2ca7e_1209792 missing or incorrect size
[2021-02-17 02:50:10] Package file tenfoot_images_all.zip.vz.3068f03284bffd434b35a595a4075a61908f0f90_32858345 missing or incorrect size
[2021-02-17 02:50:10] Package file tenfoot_all.zip.vz.435e08d8da9f166403c55e9c9adb0a4d927b5e90_2303488 missing or incorrect size
[2021-02-17 02:50:10] Package file friendsui_all.zip.vz.5aedc483087f383b39f627512f663ea8af36cf8c_2433852 missing or incorrect size
[2021-02-17 02:50:10] Package file steamui_websrc_all.zip.vz.5668ba1d34f6a6570a59accda0941c9857d97679_2673662 missing or incorrect size
[2021-02-17 02:50:10] Package file resources_misc_all.zip.vz.4a1fa88d21b005b67a41a9a0fc6044ae1fa46791_2225211 missing or incorrect size
[2021-02-17 02:50:10] Package file resources_music_all.zip.vz.7a62e15083d4a65668f0d1fa58ad8c1b99fb5ace_3708050 missing or incorrect size
[2021-02-17 02:50:10] Package file resources_hidpi_all.zip.vz.a6ec169f53f3e3efaebc05c1a68c1aeb567c5847_57918 missing or incorrect size
[2021-02-17 02:50:10] Package file resources_all.zip.vz.1007fd2145b770678230d2011e2c501f9284b891_1308684 missing or incorrect size
[2021-02-17 02:50:10] Package file strings_en_all.zip.713f8e2800c70e4b1dda207568c5fedb9fa4ec65 missing or incorrect size
[2021-02-17 02:50:10] Package file strings_all.zip.vz.28ec6dac208f8d9281e06281ff3b5f4b05364f8a_1938128 missing or incorrect size
[2021-02-17 02:50:10] Package file public_all.zip.vz.049af0638b3f435d419563ade09b2edb1f6f5138_4125640 missing or incorrect size
[2021-02-17 02:50:10] Package file bins_ubuntu12.zip.vz.2a135796c92d6e23785b1f0cf8d7ee80f27df4fc_22613094 missing or incorrect size
[2021-02-17 02:50:10] Package file bins_pub_ubuntu12.zip.vz.c0792b22046f0cf434bcd71bc266916261d54210_9043823 missing or incorrect size
[2021-02-17 02:50:10] Package file bins_sdk_ubuntu12.zip.vz.8d1ddf3c64d3222da5e9d731c16fadd6d8eba989_14740865 missing or incorrect size
[2021-02-17 02:50:10] Package file bins_codecs_ubuntu12.zip.vz.9bd679476290a0b03ff0e532931a5efa1e40436d_2540224 missing or incorrect size
[2021-02-17 02:50:10] Package file bins_misc_ubuntu12.zip.vz.559e7160610d11802a119324af7ab9c6e4e277a6_13823133 missing or incorrect size
[2021-02-17 02:50:10] Package file webkit_ubuntu12.zip.vz.68c6d8f6f2f33d71fc3c3dd48c7a7cc9d5971dbb_55089257 missing or incorrect size
[2021-02-17 02:50:10] Package file miles_ubuntu12.zip.vz.4fd048667c97ef6eb976f4c42ce5c18f8695ac9e_295483 missing or incorrect size
[2021-02-17 02:50:10] Package file sdl2_ubuntu12.zip.vz.4a44e8055cf1b8d72cdf088bf068977957718c42_815016 missing or incorrect size
[2021-02-17 02:50:10] Package file steam_ubuntu12.zip.vz.31cd1fcd6eb19ea88da76f7624978cc003feaf23_1529743 missing or incorrect size
[2021-02-17 02:50:10] Package file runtime_part0_ubuntu12.zip.f776a2dfed57aab541077280ccd2f0a1793ea36d missing or incorrect size
[2021-02-17 02:50:10] Package file runtime_part1_ubuntu12.zip.e46ba72526809127bef8f0005a5d8771b742f794 missing or incorrect size
[2021-02-17 02:50:10] Package file runtime_part2_ubuntu12.zip.ef4fbad4ae150e78e81113eb4d0aa5833a0f2f85 missing or incorrect size
[2021-02-17 02:50:10] Add pending download: media.steampowered.com/client/tenfoot_misc_all.zip.1ca83d76835b4613170f5cead778b176b11f2b0c
[2021-02-17 02:50:11] Add pending download: media.steampowered.com/client/tenfoot_dicts_all.zip.33245b7d523f68418283e93b0572508fa127ee8f
[2021-02-17 02:50:11] Add pending download: media.steampowered.com/client/tenfoot_fonts_all.zip.vz.7673e4cd32b6752bc621d8bc1a7118a9af19b64a_12077027
[2021-02-17 02:50:11] Add pending download: media.steampowered.com/client/tenfoot_ambientsounds_all.zip.89b80bcfdd11b2b99257ddbbdc374e2df54e2738
[2021-02-17 02:50:11] Add pending download: media.steampowered.com/client/tenfoot_sounds_all.zip.vz.ffef2b2fc386819a842ea79484b966a937c2ca7e_1209792
[2021-02-17 02:50:11] Add pending download: media.steampowered.com/client/tenfoot_images_all.zip.vz.3068f03284bffd434b35a595a4075a61908f0f90_32858345
[2021-02-17 02:50:11] Add pending download: media.steampowered.com/client/tenfoot_all.zip.vz.435e08d8da9f166403c55e9c9adb0a4d927b5e90_2303488
[2021-02-17 02:50:11] Add pending download: media.steampowered.com/client/friendsui_all.zip.vz.5aedc483087f383b39f627512f663ea8af36cf8c_2433852
[2021-02-17 02:50:11] Add pending download: media.steampowered.com/client/steamui_websrc_all.zip.vz.5668ba1d34f6a6570a59accda0941c9857d97679_2673662
[2021-02-17 02:50:11] Add pending download: media.steampowered.com/client/resources_misc_all.zip.vz.4a1fa88d21b005b67a41a9a0fc6044ae1fa46791_2225211
[2021-02-17 02:50:11] Add pending download: media.steampowered.com/client/resources_music_all.zip.vz.7a62e15083d4a65668f0d1fa58ad8c1b99fb5ace_3708050
[2021-02-17 02:50:11] Add pending download: media.steampowered.com/client/resources_hidpi_all.zip.vz.a6ec169f53f3e3efaebc05c1a68c1aeb567c5847_57918
[2021-02-17 02:50:11] Add pending download: media.steampowered.com/client/resources_all.zip.vz.1007fd2145b770678230d2011e2c501f9284b891_1308684
[2021-02-17 02:50:11] Add pending download: media.steampowered.com/client/strings_en_all.zip.713f8e2800c70e4b1dda207568c5fedb9fa4ec65
[2021-02-17 02:50:11] Add pending download: media.steampowered.com/client/strings_all.zip.vz.28ec6dac208f8d9281e06281ff3b5f4b05364f8a_1938128
[2021-02-17 02:50:11] Add pending download: media.steampowered.com/client/public_all.zip.vz.049af0638b3f435d419563ade09b2edb1f6f5138_4125640
[2021-02-17 02:50:11] Add pending download: media.steampowered.com/client/bins_ubuntu12.zip.vz.2a135796c92d6e23785b1f0cf8d7ee80f27df4fc_22613094
[2021-02-17 02:50:11] Add pending download: media.steampowered.com/client/bins_pub_ubuntu12.zip.vz.c0792b22046f0cf434bcd71bc266916261d54210_9043823
[2021-02-17 02:50:11] Add pending download: media.steampowered.com/client/bins_sdk_ubuntu12.zip.vz.8d1ddf3c64d3222da5e9d731c16fadd6d8eba989_14740865
[2021-02-17 02:50:11] Add pending download: media.steampowered.com/client/bins_codecs_ubuntu12.zip.vz.9bd679476290a0b03ff0e532931a5efa1e40436d_2540224
[2021-02-17 02:50:11] Add pending download: media.steampowered.com/client/bins_misc_ubuntu12.zip.vz.559e7160610d11802a119324af7ab9c6e4e277a6_13823133
[2021-02-17 02:50:11] Add pending download: media.steampowered.com/client/webkit_ubuntu12.zip.vz.68c6d8f6f2f33d71fc3c3dd48c7a7cc9d5971dbb_55089257
[2021-02-17 02:50:11] Add pending download: media.steampowered.com/client/miles_ubuntu12.zip.vz.4fd048667c97ef6eb976f4c42ce5c18f8695ac9e_295483
[2021-02-17 02:50:11] Add pending download: media.steampowered.com/client/sdl2_ubuntu12.zip.vz.4a44e8055cf1b8d72cdf088bf068977957718c42_815016
[2021-02-17 02:50:11] Add pending download: media.steampowered.com/client/steam_ubuntu12.zip.vz.31cd1fcd6eb19ea88da76f7624978cc003feaf23_1529743
[2021-02-17 02:50:11] Add pending download: media.steampowered.com/client/runtime_part0_ubuntu12.zip.f776a2dfed57aab541077280ccd2f0a1793ea36d
[2021-02-17 02:50:11] Add pending download: media.steampowered.com/client/runtime_part1_ubuntu12.zip.e46ba72526809127bef8f0005a5d8771b742f794
[2021-02-17 02:50:11] Add pending download: media.steampowered.com/client/runtime_part2_ubuntu12.zip.ef4fbad4ae150e78e81113eb4d0aa5833a0f2f85
[2021-02-17 02:50:11] Downloading update (2277 of 281376 KB)...
[2021-02-17 02:50:11] Downloading update (3075 of 281376 KB)...
[2021-02-17 02:50:12] Downloading update (3952 of 281376 KB)...
[2021-02-17 02:50:12] Downloading update (4833 of 281376 KB)...
[2021-02-17 02:50:12] Downloading update (5717 of 281376 KB)...
[2021-02-17 02:50:12] Downloading update (6602 of 281376 KB)...
[2021-02-17 02:50:13] Downloading update (7493 of 281376 KB)...
[2021-02-17 02:50:13] Downloading update (8377 of 281376 KB)...
[2021-02-17 02:50:13] Downloading update (9172 of 281376 KB)...
[2021-02-17 02:50:13] Downloading update (10056 of 281376 KB)...
[2021-02-17 02:50:14] Downloading update (10940 of 281376 KB)...
[2021-02-17 02:50:14] Downloading update (11816 of 281376 KB)...
[2021-02-17 02:50:14] Downloading update (12711 of 281376 KB)...
[2021-02-17 02:50:14] Downloading update (13596 of 281376 KB)...
[2021-02-17 02:50:15] Downloading update (14482 of 281376 KB)...
[2021-02-17 02:50:15] Downloading update (15281 of 281376 KB)...
[2021-02-17 02:50:15] Downloading update (16161 of 281376 KB)...
[2021-02-17 02:50:15] Downloading update (17046 of 281376 KB)...
[2021-02-17 02:50:16] Downloading update (17929 of 281376 KB)...
[2021-02-17 02:50:16] Downloading update (18809 of 281376 KB)...
[2021-02-17 02:50:16] Downloading update (19699 of 281376 KB)...
[2021-02-17 02:50:16] Downloading update (20588 of 281376 KB)...
[2021-02-17 02:50:17] Downloading update (21382 of 281376 KB)...
[2021-02-17 02:50:17] Downloading update (22272 of 281376 KB)...
[2021-02-17 02:50:17] Downloading update (23151 of 281376 KB)...
[2021-02-17 02:50:17] Downloading update (24024 of 281376 KB)...
[2021-02-17 02:50:18] Downloading update (24919 of 281376 KB)...
[2021-02-17 02:50:18] Downloading update (25805 of 281376 KB)...
[2021-02-17 02:50:18] Downloading update (26694 of 281376 KB)...
[2021-02-17 02:50:18] Downloading update (27536 of 281376 KB)...
[2021-02-17 02:50:19] Downloading update (28373 of 281376 KB)...
[2021-02-17 02:50:19] Downloading update (29249 of 281376 KB)...
[2021-02-17 02:50:19] Downloading update (30137 of 281376 KB)...
[2021-02-17 02:50:19] Downloading update (31020 of 281376 KB)...
[2021-02-17 02:50:20] Downloading update (32018 of 281376 KB)...
[2021-02-17 02:50:20] Downloading update (33247 of 281376 KB)...
[2021-02-17 02:50:20] Downloading update (34116 of 281376 KB)...
[2021-02-17 02:50:21] Downloading update (34978 of 281376 KB)...
[2021-02-17 02:50:21] Downloading update (35805 of 281376 KB)...
[2021-02-17 02:50:21] Downloading update (36724 of 281376 KB)...
[2021-02-17 02:50:21] Downloading update (37606 of 281376 KB)...
[2021-02-17 02:50:22] Downloading update (38396 of 281376 KB)...
[2021-02-17 02:50:22] Downloading update (39279 of 281376 KB)...
[2021-02-17 02:50:22] Downloading update (40173 of 281376 KB)...
[2021-02-17 02:50:22] Downloading update (41055 of 281376 KB)...
[2021-02-17 02:50:23] Downloading update (41939 of 281376 KB)...
[2021-02-17 02:50:23] Downloading update (42825 of 281376 KB)...
[2021-02-17 02:50:23] Downloading update (43708 of 281376 KB)...
[2021-02-17 02:50:23] Downloading update (44591 of 281376 KB)...
[2021-02-17 02:50:24] Downloading update (45384 of 281376 KB)...
[2021-02-17 02:50:24] Downloading update (46261 of 281376 KB)...
[2021-02-17 02:50:24] Downloading update (47153 of 281376 KB)...
[2021-02-17 02:50:24] Downloading update (48035 of 281376 KB)...
[2021-02-17 02:50:25] Downloading update (48919 of 281376 KB)...
[2021-02-17 02:50:25] Downloading update (49804 of 281376 KB)...
[2021-02-17 02:50:25] Downloading update (50687 of 281376 KB)...
[2021-02-17 02:50:26] Downloading update (51480 of 281376 KB)...
[2021-02-17 02:50:26] Downloading update (52980 of 281376 KB)...
[2021-02-17 02:50:26] Downloading update (53863 of 281376 KB)...
[2021-02-17 02:50:26] Downloading update (54753 of 281376 KB)...
[2021-02-17 02:50:27] Downloading update (55626 of 281376 KB)...
[2021-02-17 02:50:27] Downloading update (56425 of 281376 KB)...
[2021-02-17 02:50:27] Downloading update (57360 of 281376 KB)...
[2021-02-17 02:50:27] Downloading update (58301 of 281376 KB)...
[2021-02-17 02:50:28] Downloading update (59150 of 281376 KB)...
[2021-02-17 02:50:28] Downloading update (60094 of 281376 KB)...
[2021-02-17 02:50:28] Downloading update (60978 of 281376 KB)...
[2021-02-17 02:50:28] Downloading update (61865 of 281376 KB)...
[2021-02-17 02:50:29] Downloading update (62747 of 281376 KB)...
[2021-02-17 02:50:29] Downloading update (63641 of 281376 KB)...
[2021-02-17 02:50:29] Downloading update (64435 of 281376 KB)...
[2021-02-17 02:50:29] Downloading update (65365 of 281376 KB)...
[2021-02-17 02:50:30] Downloading update (66392 of 281376 KB)...
[2021-02-17 02:50:30] Downloading update (67364 of 281376 KB)...
[2021-02-17 02:50:30] Downloading update (68153 of 281376 KB)...
[2021-02-17 02:50:30] Downloading update (68964 of 281376 KB)...
[2021-02-17 02:50:31] Downloading update (69525 of 281376 KB)...
[2021-02-17 02:50:31] Downloading update (70244 of 281376 KB)...
[2021-02-17 02:50:31] Downloading update (70677 of 281376 KB)...
[2021-02-17 02:50:31] Downloading update (71214 of 281376 KB)...
[2021-02-17 02:50:32] Downloading update (71974 of 281376 KB)...
[2021-02-17 02:50:32] Downloading update (72664 of 281376 KB)...
[2021-02-17 02:50:32] Downloading update (73366 of 281376 KB)...
[2021-02-17 02:50:32] Downloading update (74309 of 281376 KB)...
[2021-02-17 02:50:33] Downloading update (75246 of 281376 KB)...
[2021-02-17 02:50:33] Downloading update (76139 of 281376 KB)...
[2021-02-17 02:50:33] Downloading update (77026 of 281376 KB)...
[2021-02-17 02:50:33] Downloading update (77922 of 281376 KB)...
[2021-02-17 02:50:34] Downloading update (78808 of 281376 KB)...
[2021-02-17 02:50:34] Downloading update (79694 of 281376 KB)...
[2021-02-17 02:50:34] Downloading update (80579 of 281376 KB)...
[2021-02-17 02:50:34] Downloading update (81461 of 281376 KB)...
[2021-02-17 02:50:35] Downloading update (82250 of 281376 KB)...
[2021-02-17 02:50:35] Downloading update (83133 of 281376 KB)...
[2021-02-17 02:50:35] Downloading update (84029 of 281376 KB)...
[2021-02-17 02:50:35] Downloading update (84910 of 281376 KB)...
[2021-02-17 02:50:36] Downloading update (85794 of 281376 KB)...
[2021-02-17 02:50:36] Downloading update (86650 of 281376 KB)...
[2021-02-17 02:50:36] Downloading update (87466 of 281376 KB)...
[2021-02-17 02:50:36] Downloading update (88243 of 281376 KB)...
[2021-02-17 02:50:37] Downloading update (89090 of 281376 KB)...
[2021-02-17 02:50:37] Downloading update (90030 of 281376 KB)...
[2021-02-17 02:50:37] Downloading update (90914 of 281376 KB)...
[2021-02-17 02:50:37] Downloading update (91799 of 281376 KB)...
[2021-02-17 02:50:38] Downloading update (92680 of 281376 KB)...
[2021-02-17 02:50:38] Downloading update (93474 of 281376 KB)...
[2021-02-17 02:50:38] Downloading update (94356 of 281376 KB)...
[2021-02-17 02:50:38] Downloading update (95237 of 281376 KB)...
[2021-02-17 02:50:39] Downloading update (96120 of 281376 KB)...
[2021-02-17 02:50:39] Downloading update (97004 of 281376 KB)...
[2021-02-17 02:50:39] Downloading update (97890 of 281376 KB)...
[2021-02-17 02:50:40] Downloading update (98775 of 281376 KB)...
[2021-02-17 02:50:40] Downloading update (99572 of 281376 KB)...
[2021-02-17 02:50:40] Downloading update (100457 of 281376 KB)...
[2021-02-17 02:50:40] Downloading update (101339 of 281376 KB)...
[2021-02-17 02:50:41] Downloading update (102223 of 281376 KB)...
[2021-02-17 02:50:41] Downloading update (103105 of 281376 KB)...
[2021-02-17 02:50:41] Downloading update (103988 of 281376 KB)...
[2021-02-17 02:50:41] Downloading update (104866 of 281376 KB)...
[2021-02-17 02:50:42] Downloading update (105669 of 281376 KB)...
[2021-02-17 02:50:42] Downloading update (106539 of 281376 KB)...
[2021-02-17 02:50:42] Downloading update (107431 of 281376 KB)...
[2021-02-17 02:50:42] Downloading update (108323 of 281376 KB)...
[2021-02-17 02:50:43] Downloading update (109208 of 281376 KB)...
[2021-02-17 02:50:43] Downloading update (110093 of 281376 KB)...
[2021-02-17 02:50:43] Downloading update (110978 of 281376 KB)...
[2021-02-17 02:50:43] Downloading update (111791 of 281376 KB)...
[2021-02-17 02:50:44] Downloading update (112654 of 281376 KB)...
[2021-02-17 02:50:44] Downloading update (113530 of 281376 KB)...
[2021-02-17 02:50:44] Downloading update (114422 of 281376 KB)...
[2021-02-17 02:50:44] Downloading update (115314 of 281376 KB)...
[2021-02-17 02:50:45] Downloading update (116197 of 281376 KB)...
[2021-02-17 02:50:45] Downloading update (117080 of 281376 KB)...
[2021-02-17 02:50:45] Downloading update (117869 of 281376 KB)...
[2021-02-17 02:50:45] Downloading update (118761 of 281376 KB)...
[2021-02-17 02:50:46] Downloading update (119645 of 281376 KB)...
[2021-02-17 02:50:46] Downloading update (120530 of 281376 KB)...
[2021-02-17 02:50:46] Downloading update (121412 of 281376 KB)...
[2021-02-17 02:50:46] Downloading update (122227 of 281376 KB)...
[2021-02-17 02:50:47] Downloading update (123311 of 281376 KB)...
[2021-02-17 02:50:47] Downloading update (124193 of 281376 KB)...
[2021-02-17 02:50:47] Downloading update (125075 of 281376 KB)...
[2021-02-17 02:50:47] Downloading update (125960 of 281376 KB)...
[2021-02-17 02:50:48] Downloading update (126866 of 281376 KB)...
[2021-02-17 02:50:48] Downloading update (128363 of 281376 KB)...
[2021-02-17 02:50:48] Downloading update (129249 of 281376 KB)...
[2021-02-17 02:50:48] Downloading update (130043 of 281376 KB)...
[2021-02-17 02:50:49] Downloading update (130927 of 281376 KB)...
[2021-02-17 02:50:49] Downloading update (131812 of 281376 KB)...
[2021-02-17 02:50:49] Downloading update (132694 of 281376 KB)...
[2021-02-17 02:50:49] Downloading update (133561 of 281376 KB)...
[2021-02-17 02:50:50] Downloading update (134448 of 281376 KB)...
[2021-02-17 02:50:50] Downloading update (135340 of 281376 KB)...
[2021-02-17 02:50:50] Downloading update (136226 of 281376 KB)...
[2021-02-17 02:50:51] Downloading update (137103 of 281376 KB)...
[2021-02-17 02:50:51] Downloading update (137917 of 281376 KB)...
[2021-02-17 02:50:51] Downloading update (139251 of 281376 KB)...
[2021-02-17 02:50:51] Downloading update (140131 of 281376 KB)...
[2021-02-17 02:50:52] Downloading update (141019 of 281376 KB)...
[2021-02-17 02:50:52] Downloading update (141905 of 281376 KB)...
[2021-02-17 02:50:52] Downloading update (142786 of 281376 KB)...
[2021-02-17 02:50:52] Downloading update (143671 of 281376 KB)...
[2021-02-17 02:50:53] Downloading update (144467 of 281376 KB)...
[2021-02-17 02:50:53] Downloading update (145348 of 281376 KB)...
[2021-02-17 02:50:53] Downloading update (146239 of 281376 KB)...
[2021-02-17 02:50:53] Downloading update (147129 of 281376 KB)...
[2021-02-17 02:50:54] Downloading update (148015 of 281376 KB)...
[2021-02-17 02:50:54] Downloading update (148897 of 281376 KB)...
[2021-02-17 02:50:54] Downloading update (149784 of 281376 KB)...
[2021-02-17 02:50:54] Downloading update (150577 of 281376 KB)...
[2021-02-17 02:50:55] Downloading update (151460 of 281376 KB)...
[2021-02-17 02:50:55] Downloading update (152343 of 281376 KB)...
[2021-02-17 02:50:55] Downloading update (153207 of 281376 KB)...
[2021-02-17 02:50:55] Downloading update (154078 of 281376 KB)...
[2021-02-17 02:50:56] Downloading update (154964 of 281376 KB)...
[2021-02-17 02:50:56] Downloading update (155846 of 281376 KB)...
[2021-02-17 02:50:56] Downloading update (156645 of 281376 KB)...
[2021-02-17 02:50:56] Downloading update (157528 of 281376 KB)...
[2021-02-17 02:50:57] Downloading update (158413 of 281376 KB)...
[2021-02-17 02:50:57] Downloading update (159299 of 281376 KB)...
[2021-02-17 02:50:57] Downloading update (160184 of 281376 KB)...
[2021-02-17 02:50:57] Downloading update (161065 of 281376 KB)...
[2021-02-17 02:50:58] Downloading update (161951 of 281376 KB)...
[2021-02-17 02:50:58] Downloading update (162751 of 281376 KB)...
[2021-02-17 02:50:58] Downloading update (163634 of 281376 KB)...
[2021-02-17 02:50:58] Downloading update (164570 of 281376 KB)...
[2021-02-17 02:50:59] Downloading update (165711 of 281376 KB)...
[2021-02-17 02:50:59] Downloading update (166580 of 281376 KB)...
[2021-02-17 02:50:59] Downloading update (167635 of 281376 KB)...
[2021-02-17 02:51:00] Downloading update (168607 of 281376 KB)...
[2021-02-17 02:51:00] Downloading update (169495 of 281376 KB)...
[2021-02-17 02:51:00] Downloading update (170385 of 281376 KB)...
[2021-02-17 02:51:00] Downloading update (171275 of 281376 KB)...
[2021-02-17 02:51:01] Downloading update (172163 of 281376 KB)...
[2021-02-17 02:51:01] Downloading update (173045 of 281376 KB)...
[2021-02-17 02:51:01] Downloading update (173929 of 281376 KB)...
[2021-02-17 02:51:01] Downloading update (174813 of 281376 KB)...
[2021-02-17 02:51:02] Downloading update (175698 of 281376 KB)...
[2021-02-17 02:51:02] Downloading update (176479 of 281376 KB)...
[2021-02-17 02:51:02] Downloading update (177353 of 281376 KB)...
[2021-02-17 02:51:02] Downloading update (177997 of 281376 KB)...
[2021-02-17 02:51:03] Downloading update (178655 of 281376 KB)...
[2021-02-17 02:51:03] Downloading update (179414 of 281376 KB)...
[2021-02-17 02:51:03] Downloading update (180155 of 281376 KB)...
[2021-02-17 02:51:03] Downloading update (180914 of 281376 KB)...
[2021-02-17 02:51:04] Downloading update (181490 of 281376 KB)...
[2021-02-17 02:51:04] Downloading update (182315 of 281376 KB)...
[2021-02-17 02:51:04] Downloading update (182884 of 281376 KB)...
[2021-02-17 02:51:04] Downloading update (183715 of 281376 KB)...
[2021-02-17 02:51:05] Downloading update (184340 of 281376 KB)...
[2021-02-17 02:51:05] Downloading update (185031 of 281376 KB)...
[2021-02-17 02:51:05] Downloading update (186064 of 281376 KB)...
[2021-02-17 02:51:05] Downloading update (186761 of 281376 KB)...
[2021-02-17 02:51:06] Downloading update (187447 of 281376 KB)...
[2021-02-17 02:51:06] Downloading update (188275 of 281376 KB)...
[2021-02-17 02:51:06] Downloading update (188822 of 281376 KB)...
[2021-02-17 02:51:06] Downloading update (189684 of 281376 KB)...
[2021-02-17 02:51:07] Downloading update (190312 of 281376 KB)...
[2021-02-17 02:51:07] Downloading update (190880 of 281376 KB)...
[2021-02-17 02:51:07] Downloading update (191439 of 281376 KB)...
[2021-02-17 02:51:07] Downloading update (191939 of 281376 KB)...
[2021-02-17 02:51:08] Downloading update (192653 of 281376 KB)...
[2021-02-17 02:51:08] Downloading update (193321 of 281376 KB)...
[2021-02-17 02:51:08] Downloading update (193846 of 281376 KB)...
[2021-02-17 02:51:08] Downloading update (194967 of 281376 KB)...
[2021-02-17 02:51:09] Downloading update (195862 of 281376 KB)...
[2021-02-17 02:51:09] Downloading update (196747 of 281376 KB)...
[2021-02-17 02:51:09] Downloading update (197635 of 281376 KB)...
[2021-02-17 02:51:09] Downloading update (198520 of 281376 KB)...
[2021-02-17 02:51:10] Downloading update (199297 of 281376 KB)...
[2021-02-17 02:51:10] Downloading update (200179 of 281376 KB)...
[2021-02-17 02:51:10] Downloading update (201067 of 281376 KB)...
[2021-02-17 02:51:10] Downloading update (201939 of 281376 KB)...
[2021-02-17 02:51:11] Downloading update (202831 of 281376 KB)...
[2021-02-17 02:51:11] Downloading update (203720 of 281376 KB)...
[2021-02-17 02:51:11] Downloading update (204508 of 281376 KB)...
[2021-02-17 02:51:11] Downloading update (205129 of 281376 KB)...
[2021-02-17 02:51:12] Downloading update (206016 of 281376 KB)...
[2021-02-17 02:51:12] Downloading update (206904 of 281376 KB)...
[2021-02-17 02:51:12] Downloading update (207785 of 281376 KB)...
[2021-02-17 02:51:12] Downloading update (208672 of 281376 KB)...
[2021-02-17 02:51:13] Downloading update (209554 of 281376 KB)...
[2021-02-17 02:51:13] Downloading update (210093 of 281376 KB)...
[2021-02-17 02:51:13] Downloading update (210911 of 281376 KB)...
[2021-02-17 02:51:13] Downloading update (211797 of 281376 KB)...
[2021-02-17 02:51:14] Downloading update (212672 of 281376 KB)...
[2021-02-17 02:51:14] Downloading update (213557 of 281376 KB)...
[2021-02-17 02:51:14] Downloading update (214446 of 281376 KB)...
[2021-02-17 02:51:14] Downloading update (215331 of 281376 KB)...
[2021-02-17 02:51:15] Downloading update (216220 of 281376 KB)...
[2021-02-17 02:51:15] Downloading update (217005 of 281376 KB)...
[2021-02-17 02:51:15] Downloading update (217889 of 281376 KB)...
[2021-02-17 02:51:15] Downloading update (218772 of 281376 KB)...
[2021-02-17 02:51:16] Downloading update (219640 of 281376 KB)...
[2021-02-17 02:51:16] Downloading update (220515 of 281376 KB)...
[2021-02-17 02:51:16] Downloading update (221410 of 281376 KB)...
[2021-02-17 02:51:16] Downloading update (222239 of 281376 KB)...
[2021-02-17 02:51:17] Downloading update (223284 of 281376 KB)...
[2021-02-17 02:51:17] Downloading update (224369 of 281376 KB)...
[2021-02-17 02:51:17] Downloading update (225252 of 281376 KB)...
[2021-02-17 02:51:18] Downloading update (226049 of 281376 KB)...
[2021-02-17 02:51:18] Downloading update (226931 of 281376 KB)...
[2021-02-17 02:51:18] Downloading update (227806 of 281376 KB)...
[2021-02-17 02:51:18] Downloading update (228700 of 281376 KB)...
[2021-02-17 02:51:19] Downloading update (229585 of 281376 KB)...
[2021-02-17 02:51:19] Downloading update (230465 of 281376 KB)...
[2021-02-17 02:51:19] Downloading update (231349 of 281376 KB)...
[2021-02-17 02:51:19] Downloading update (232232 of 281376 KB)...
[2021-02-17 02:51:20] Downloading update (233025 of 281376 KB)...
[2021-02-17 02:51:20] Downloading update (233900 of 281376 KB)...
[2021-02-17 02:51:20] Downloading update (234791 of 281376 KB)...
[2021-02-17 02:51:20] Downloading update (235674 of 281376 KB)...
[2021-02-17 02:51:21] Downloading update (236553 of 281376 KB)...
[2021-02-17 02:51:21] Downloading update (237433 of 281376 KB)...
[2021-02-17 02:51:21] Downloading update (238320 of 281376 KB)...
[2021-02-17 02:51:21] Downloading update (239201 of 281376 KB)...
[2021-02-17 02:51:22] Downloading update (239973 of 281376 KB)...
[2021-02-17 02:51:22] Downloading update (240878 of 281376 KB)...
[2021-02-17 02:51:22] Downloading update (241760 of 281376 KB)...
[2021-02-17 02:51:22] Downloading update (242640 of 281376 KB)...
[2021-02-17 02:51:23] Downloading update (243522 of 281376 KB)...
[2021-02-17 02:51:23] Downloading update (244404 of 281376 KB)...
[2021-02-17 02:51:23] Downloading update (245123 of 281376 KB)...
[2021-02-17 02:51:23] Downloading update (246025 of 281376 KB)...
[2021-02-17 02:51:24] Downloading update (246827 of 281376 KB)...
[2021-02-17 02:51:24] Downloading update (247718 of 281376 KB)...
[2021-02-17 02:51:24] Downloading update (248600 of 281376 KB)...
[2021-02-17 02:51:24] Downloading update (249482 of 281376 KB)...
[2021-02-17 02:51:25] Downloading update (250367 of 281376 KB)...
[2021-02-17 02:51:25] Downloading update (251249 of 281376 KB)...
[2021-02-17 02:51:25] Downloading update (252131 of 281376 KB)...
[2021-02-17 02:51:25] Downloading update (253023 of 281376 KB)...
[2021-02-17 02:51:26] Downloading update (253814 of 281376 KB)...
[2021-02-17 02:51:26] Downloading update (254695 of 281376 KB)...
[2021-02-17 02:51:26] Downloading update (255577 of 281376 KB)...
[2021-02-17 02:51:26] Downloading update (256459 of 281376 KB)...
[2021-02-17 02:51:27] Downloading update (257348 of 281376 KB)...
[2021-02-17 02:51:27] Downloading update (258061 of 281376 KB)...
[2021-02-17 02:51:27] Downloading update (258925 of 281376 KB)...
[2021-02-17 02:51:27] Downloading update (259809 of 281376 KB)...
[2021-02-17 02:51:28] Downloading update (260609 of 281376 KB)...
[2021-02-17 02:51:28] Downloading update (261486 of 281376 KB)...
[2021-02-17 02:51:28] Downloading update (262375 of 281376 KB)...
[2021-02-17 02:51:28] Downloading update (263264 of 281376 KB)...
[2021-02-17 02:51:29] Downloading update (264149 of 281376 KB)...
[2021-02-17 02:51:29] Downloading update (265038 of 281376 KB)...
[2021-02-17 02:51:29] Downloading update (265917 of 281376 KB)...
[2021-02-17 02:51:29] Downloading update (266718 of 281376 KB)...
[2021-02-17 02:51:30] Downloading update (267600 of 281376 KB)...
[2021-02-17 02:51:30] Downloading update (268487 of 281376 KB)...
[2021-02-17 02:51:30] Downloading update (269368 of 281376 KB)...
[2021-02-17 02:51:30] Downloading update (270251 of 281376 KB)...
[2021-02-17 02:51:31] Downloading update (271141 of 281376 KB)...
[2021-02-17 02:51:31] Downloading update (271945 of 281376 KB)...
[2021-02-17 02:51:31] Downloading update (272829 of 281376 KB)...
[2021-02-17 02:51:31] Downloading update (273708 of 281376 KB)...
[2021-02-17 02:51:32] Downloading update (274596 of 281376 KB)...
[2021-02-17 02:51:32] Downloading update (275482 of 281376 KB)...
[2021-02-17 02:51:32] Downloading update (276365 of 281376 KB)...
[2021-02-17 02:51:32] Downloading update (277246 of 281376 KB)...
[2021-02-17 02:51:33] Downloading update (278135 of 281376 KB)...
[2021-02-17 02:51:33] Downloading update (278585 of 281376 KB)...
[2021-02-17 02:51:33] Downloading update (280206 of 281376 KB)...
[2021-02-17 02:51:34] Downloading update (281062 of 281376 KB)...
[2021-02-17 02:51:34] Downloading update (281376 of 281376 KB)...
[2021-02-17 02:51:34] Download Complete.
[2021-02-17 02:51:34] Saving metrics to disk (/home/carlos/.local/share/Steam/package/steam_client_metrics.bin)
[2021-02-17 02:51:34] uninstalled manifest found in /home/carlos/.local/share/Steam/package/steam_client_ubuntu12 (1).
[2021-02-17 02:51:34] Extracting package...
[2021-02-17 02:51:57] Installing update...
[2021-02-17 02:51:58] Cleaning up...
[2021-02-17 02:51:58] Update complete, launching...
[2021-02-17 02:51:58] Shutdown


[2021-02-17 02:52:36] Startup - updater built Feb 12 2021 23:21:33
[2021-02-17 02:52:36] Loading cached metrics from disk (/home/carlos/.local/share/Steam/package/steam_client_metrics.bin)
[2021-02-17 02:52:36] Failed to load cached hosts file (File 'update_hosts_cached.vdf' not found), using defaults
[2021-02-17 02:52:36] Using the following download hosts for Public, Realm steamglobal
[2021-02-17 02:52:36] 1. http://media.steampowered.com, /client/, Realm 'steamglobal', weight was 1, source = 'baked in'
[2021-02-17 02:52:36] Verifying installation...
[2021-02-17 02:52:36] Verification complete
[2021-02-17 02:52:55] Shutdown
