

[2021-02-17 02:52:38] Failed to read store 'install' from '/home/carlos/.local/share/Steam/config/config.vdf.tmp'
[2021-02-17 02:52:38] Failed to read store 'install' from '/home/carlos/.local/share/Steam/config/config.vdf.tmp'
[2021-02-17 02:52:39] Flushed store 'install' to '/home/carlos/.local/share/Steam/config/config.vdf'
[2021-02-17 02:52:39] Flushed store 'install' to '/home/carlos/.local/share/Steam/config/config.vdf'
[2021-02-17 02:52:42] Flushed store 'install' to '/home/carlos/.local/share/Steam/config/config.vdf'
