"resource/remotenplaytogetheravailableotification.res"
{
		
	"BroadcastPublicStateNotification"
	{
		"ControlName"		"BroadcastPublicStateNotification"
		"fieldName"		"BroadcastPublicStateNotification"
		"xpos"		"0"
		"ypos"		"0"
		"wide"		"240"
		"tall"		"74"
		"AutoResize"		"0"
		"PinCorner"		"0"
		"visible"		"1"
		"enabled"		"1"
		"tabPosition"		"0"
		"paintbackground"		"1"
		style="notification"
	}
	
	"RemotePlayTogetherImage"
	{
		"ControlName"		"ImagePanel"
		"fieldName"		"RemotePlayTogetherImage"
		"xpos"		"1"
		"ypos"		"1"
		"zpos" 		"1"
		"wide"		"238"
		"tall"		"72"
		"AutoResize"		"0"
		"PinCorner"		"0"
		"visible"		"1"
		"enabled"		"1"
		"tabPosition"		"0"
		"paintbackground"		"1"
		"gradientVertical"		"0"
		"scaleImage"		"0"
		"image"  "graphics/remoteplaytogether_notification"
	}

	"LabelTitle"
	{
		"ControlName"		"Label"
		"fieldName"			"LabelTitle"
		"style"				"NotifyRemotePlayTogetherTitle"
		"xpos"				"50"
		"ypos"				"10"
		"zpos" 				"2"
		"wide"				"140"
		"tall"				"14"
		"AutoResize"		"0"
		"PinCorner"			"0"
		"visible"			"1"
		"enabled"			"1"
		"tabPosition"		"0"
		"paintbackground"	"1"
		"labelText"			"#RemotePlayTogether_Notification_AvailableToInvite_Title"
		"textAlignment"		"center"
		"wrap"				"0"
	}	

	"LabelInfo"
	{
		"ControlName"		"Label"
		"fieldName"			"LabelInfo"
		"style"				"NotifyRemoteClientInfo"
		"xpos"				"65"
		"ypos"				"30"
		"zpos" 				"2"
		"wide"				"110"
		"tall"				"50"
		"AutoResize"		"0"
		"PinCorner"			"0"
		"visible"			"1"
		"enabled"			"1"
		"tabPosition"		"0"
		"paintbackground"	"1"
		"labelText"			"Test"
		"textAlignment"		"north-west"
		"wrap"				"1"
	}	
}
