{
	"asset": "FossilizeApplicationInfoFilter",
	"version": 1,
	"engineFilters": {
		"DXVK": {
			"minimumEngineVersion": 4222979
		},
		"vkd3d": {
			"minimumEngineVersion": 8392704
		}
	}
}
